C:\Users\mkxzis\Downloads\Crush-Crush-Cheat-main\Crush Crush Cheat\GUI\GUI.cpp;C:\Users\mkxzis\Downloads\Crush-Crush-Cheat-main\Crush Crush Cheat\Debug\GUI.obj
C:\Users\mkxzis\Downloads\Crush-Crush-Cheat-main\Crush Crush Cheat\Hooking\Keiro\kiero.cpp;C:\Users\mkxzis\Downloads\Crush-Crush-Cheat-main\Crush Crush Cheat\Debug\kiero.obj
C:\Users\mkxzis\Downloads\Crush-Crush-Cheat-main\Crush Crush Cheat\Hooking\Keiro\minhook\src\buffer.c;C:\Users\mkxzis\Downloads\Crush-Crush-Cheat-main\Crush Crush Cheat\Debug\buffer.obj
C:\Users\mkxzis\Downloads\Crush-Crush-Cheat-main\Crush Crush Cheat\Hooking\Keiro\minhook\src\hde\hde32.c;C:\Users\mkxzis\Downloads\Crush-Crush-Cheat-main\Crush Crush Cheat\Debug\hde32.obj
C:\Users\mkxzis\Downloads\Crush-Crush-Cheat-main\Crush Crush Cheat\Hooking\Keiro\minhook\src\hde\hde64.c;C:\Users\mkxzis\Downloads\Crush-Crush-Cheat-main\Crush Crush Cheat\Debug\hde64.obj
C:\Users\mkxzis\Downloads\Crush-Crush-Cheat-main\Crush Crush Cheat\Hooking\Keiro\minhook\src\hook.c;C:\Users\mkxzis\Downloads\Crush-Crush-Cheat-main\Crush Crush Cheat\Debug\hook.obj
C:\Users\mkxzis\Downloads\Crush-Crush-Cheat-main\Crush Crush Cheat\Hooking\Keiro\minhook\src\trampoline.c;C:\Users\mkxzis\Downloads\Crush-Crush-Cheat-main\Crush Crush Cheat\Debug\trampoline.obj
C:\Users\mkxzis\Downloads\Crush-Crush-Cheat-main\Crush Crush Cheat\ImGui\imgui.cpp;C:\Users\mkxzis\Downloads\Crush-Crush-Cheat-main\Crush Crush Cheat\Debug\imgui.obj
C:\Users\mkxzis\Downloads\Crush-Crush-Cheat-main\Crush Crush Cheat\ImGui\imgui_demo.cpp;C:\Users\mkxzis\Downloads\Crush-Crush-Cheat-main\Crush Crush Cheat\Debug\imgui_demo.obj
C:\Users\mkxzis\Downloads\Crush-Crush-Cheat-main\Crush Crush Cheat\ImGui\imgui_draw.cpp;C:\Users\mkxzis\Downloads\Crush-Crush-Cheat-main\Crush Crush Cheat\Debug\imgui_draw.obj
C:\Users\mkxzis\Downloads\Crush-Crush-Cheat-main\Crush Crush Cheat\ImGui\imgui_impl_dx11.cpp;C:\Users\mkxzis\Downloads\Crush-Crush-Cheat-main\Crush Crush Cheat\Debug\imgui_impl_dx11.obj
C:\Users\mkxzis\Downloads\Crush-Crush-Cheat-main\Crush Crush Cheat\ImGui\imgui_impl_win32.cpp;C:\Users\mkxzis\Downloads\Crush-Crush-Cheat-main\Crush Crush Cheat\Debug\imgui_impl_win32.obj
C:\Users\mkxzis\Downloads\Crush-Crush-Cheat-main\Crush Crush Cheat\ImGui\imgui_widgets.cpp;C:\Users\mkxzis\Downloads\Crush-Crush-Cheat-main\Crush Crush Cheat\Debug\imgui_widgets.obj
C:\Users\mkxzis\Downloads\Crush-Crush-Cheat-main\Crush Crush Cheat\EntryPoint.cpp;C:\Users\mkxzis\Downloads\Crush-Crush-Cheat-main\Crush Crush Cheat\Debug\EntryPoint.obj
C:\Users\mkxzis\Downloads\Crush-Crush-Cheat-main\Crush Crush Cheat\Main\Main.cpp;C:\Users\mkxzis\Downloads\Crush-Crush-Cheat-main\Crush Crush Cheat\Debug\Main.obj
C:\Users\mkxzis\Downloads\Crush-Crush-Cheat-main\Crush Crush Cheat\Utils\Console\Console.cpp;C:\Users\mkxzis\Downloads\Crush-Crush-Cheat-main\Crush Crush Cheat\Debug\Console.obj
