^C:\USERS\MKXZIS\DOWNLOADS\CRUSH-CRUSH-CHEAT-MAIN\CRUSH CRUSH CHEAT\DEBUG\BUFFER.OBJ|C:\USERS\MKXZIS\DOWNLOADS\CRUSH-CRUSH-CHEAT-MAIN\CRUSH CRUSH CHEAT\DEBUG\CONSOLE.OBJ|C:\USERS\MKXZIS\DOWNLOADS\CRUSH-CRUSH-CHEAT-MAIN\CRUSH CRUSH CHEAT\DEBUG\ENTRYPOINT.OBJ|C:\USERS\MKXZIS\DOWNLOADS\CRUSH-CRUSH-CHEAT-MAIN\CRUSH CRUSH CHEAT\DEBUG\GUI.OBJ|C:\USERS\MKXZIS\DOWNLOADS\CRUSH-CRUSH-CHEAT-MAIN\CRUSH CRUSH CHEAT\DEBUG\HDE32.OBJ|C:\USERS\MKXZIS\DOWNLOADS\CRUSH-CRUSH-CHEAT-MAIN\CRUSH CRUSH CHEAT\DEBUG\HDE64.OBJ|C:\USERS\MKXZIS\DOWNLOADS\CRUSH-CRUSH-CHEAT-MAIN\CRUSH CRUSH CHEAT\DEBUG\HOOK.OBJ|C:\USERS\MKXZIS\DOWNLOADS\CRUSH-CRUSH-CHEAT-MAIN\CRUSH CRUSH CHEAT\DEBUG\IMGUI.OBJ|C:\USERS\MKXZIS\DOWNLOADS\CRUSH-CRUSH-CHEAT-MAIN\CRUSH CRUSH CHEAT\DEBUG\IMGUI_DEMO.OBJ|C:\USERS\MKXZIS\DOWNLOADS\CRUSH-CRUSH-CHEAT-MAIN\CRUSH CRUSH CHEAT\DEBUG\IMGUI_DRAW.OBJ|C:\USERS\MKXZIS\DOWNLOADS\CRUSH-CRUSH-CHEAT-MAIN\CRUSH CRUSH CHEAT\DEBUG\IMGUI_IMPL_DX11.OBJ|C:\USERS\MKXZIS\DOWNLOADS\CRUSH-CRUSH-CHEAT-MAIN\CRUSH CRUSH CHEAT\DEBUG\IMGUI_IMPL_WIN32.OBJ|C:\USERS\MKXZIS\DOWNLOADS\CRUSH-CRUSH-CHEAT-MAIN\CRUSH CRUSH CHEAT\DEBUG\IMGUI_WIDGETS.OBJ|C:\USERS\MKXZIS\DOWNLOADS\CRUSH-CRUSH-CHEAT-MAIN\CRUSH CRUSH CHEAT\DEBUG\KIERO.OBJ|C:\USERS\MKXZIS\DOWNLOADS\CRUSH-CRUSH-CHEAT-MAIN\CRUSH CRUSH CHEAT\DEBUG\MAIN.OBJ|C:\USERS\MKXZIS\DOWNLOADS\CRUSH-CRUSH-CHEAT-MAIN\CRUSH CRUSH CHEAT\DEBUG\MINHOOK.RES|C:\USERS\MKXZIS\DOWNLOADS\CRUSH-CRUSH-CHEAT-MAIN\CRUSH CRUSH CHEAT\DEBUG\TRAMPOLINE.OBJ
C:\PROGRAM FILES (X86)\WINDOWS KITS\10\LIB\10.0.22621.0\UM\X86\D3D11.LIB
C:\PROGRAM FILES (X86)\WINDOWS KITS\10\LIB\10.0.22621.0\UM\X86\DXGI.LIB
C:\USERS\MKXZIS\DOWNLOADS\CRUSH-CRUSH-CHEAT-MAIN\LIBSHEADERS\EGLIB.LIB
C:\USERS\MKXZIS\DOWNLOADS\CRUSH-CRUSH-CHEAT-MAIN\LIBSHEADERS\LIBGC.LIB
C:\USERS\MKXZIS\DOWNLOADS\CRUSH-CRUSH-CHEAT-MAIN\LIBSHEADERS\LIBMINI-BDWGC.LIB
C:\USERS\MKXZIS\DOWNLOADS\CRUSH-CRUSH-CHEAT-MAIN\LIBSHEADERS\LIBMONORUNTIME-BDWGC.LIB
C:\USERS\MKXZIS\DOWNLOADS\CRUSH-CRUSH-CHEAT-MAIN\LIBSHEADERS\LIBMONO-STATIC-BDWGC.LIB
C:\USERS\MKXZIS\DOWNLOADS\CRUSH-CRUSH-CHEAT-MAIN\LIBSHEADERS\LIBMONOUTILS.LIB
C:\PROGRAM FILES (X86)\WINDOWS KITS\10\LIB\10.0.22621.0\UM\X86\KERNEL32.LIB
C:\PROGRAM FILES (X86)\WINDOWS KITS\10\LIB\10.0.22621.0\UM\X86\USER32.LIB
C:\PROGRAM FILES (X86)\WINDOWS KITS\10\LIB\10.0.22621.0\UM\X86\GDI32.LIB
C:\PROGRAM FILES (X86)\WINDOWS KITS\10\LIB\10.0.22621.0\UM\X86\WINSPOOL.LIB
C:\PROGRAM FILES (X86)\WINDOWS KITS\10\LIB\10.0.22621.0\UM\X86\COMDLG32.LIB
C:\PROGRAM FILES (X86)\WINDOWS KITS\10\LIB\10.0.22621.0\UM\X86\ADVAPI32.LIB
C:\PROGRAM FILES (X86)\WINDOWS KITS\10\LIB\10.0.22621.0\UM\X86\SHELL32.LIB
C:\PROGRAM FILES (X86)\WINDOWS KITS\10\LIB\10.0.22621.0\UM\X86\OLE32.LIB
C:\PROGRAM FILES (X86)\WINDOWS KITS\10\LIB\10.0.22621.0\UM\X86\OLEAUT32.LIB
C:\PROGRAM FILES (X86)\WINDOWS KITS\10\LIB\10.0.22621.0\UM\X86\UUID.LIB
C:\PROGRAM FILES (X86)\WINDOWS KITS\10\LIB\10.0.22621.0\UM\X86\ODBC32.LIB
C:\PROGRAM FILES (X86)\WINDOWS KITS\10\LIB\10.0.22621.0\UM\X86\ODBCCP32.LIB
C:\USERS\MKXZIS\DOWNLOADS\CRUSH-CRUSH-CHEAT-MAIN\CRUSH CRUSH CHEAT\DEBUG\MINHOOK.RES
C:\USERS\MKXZIS\DOWNLOADS\CRUSH-CRUSH-CHEAT-MAIN\CRUSH CRUSH CHEAT\DEBUG\GUI.OBJ
C:\USERS\MKXZIS\DOWNLOADS\CRUSH-CRUSH-CHEAT-MAIN\CRUSH CRUSH CHEAT\DEBUG\KIERO.OBJ
C:\USERS\MKXZIS\DOWNLOADS\CRUSH-CRUSH-CHEAT-MAIN\CRUSH CRUSH CHEAT\DEBUG\BUFFER.OBJ
C:\USERS\MKXZIS\DOWNLOADS\CRUSH-CRUSH-CHEAT-MAIN\CRUSH CRUSH CHEAT\DEBUG\HDE32.OBJ
C:\USERS\MKXZIS\DOWNLOADS\CRUSH-CRUSH-CHEAT-MAIN\CRUSH CRUSH CHEAT\DEBUG\HDE64.OBJ
C:\USERS\MKXZIS\DOWNLOADS\CRUSH-CRUSH-CHEAT-MAIN\CRUSH CRUSH CHEAT\DEBUG\HOOK.OBJ
C:\USERS\MKXZIS\DOWNLOADS\CRUSH-CRUSH-CHEAT-MAIN\CRUSH CRUSH CHEAT\DEBUG\TRAMPOLINE.OBJ
C:\USERS\MKXZIS\DOWNLOADS\CRUSH-CRUSH-CHEAT-MAIN\CRUSH CRUSH CHEAT\DEBUG\IMGUI.OBJ
C:\USERS\MKXZIS\DOWNLOADS\CRUSH-CRUSH-CHEAT-MAIN\CRUSH CRUSH CHEAT\DEBUG\IMGUI_DEMO.OBJ
C:\USERS\MKXZIS\DOWNLOADS\CRUSH-CRUSH-CHEAT-MAIN\CRUSH CRUSH CHEAT\DEBUG\IMGUI_DRAW.OBJ
C:\USERS\MKXZIS\DOWNLOADS\CRUSH-CRUSH-CHEAT-MAIN\CRUSH CRUSH CHEAT\DEBUG\IMGUI_IMPL_DX11.OBJ
C:\USERS\MKXZIS\DOWNLOADS\CRUSH-CRUSH-CHEAT-MAIN\CRUSH CRUSH CHEAT\DEBUG\IMGUI_IMPL_WIN32.OBJ
C:\USERS\MKXZIS\DOWNLOADS\CRUSH-CRUSH-CHEAT-MAIN\CRUSH CRUSH CHEAT\DEBUG\IMGUI_WIDGETS.OBJ
C:\USERS\MKXZIS\DOWNLOADS\CRUSH-CRUSH-CHEAT-MAIN\CRUSH CRUSH CHEAT\DEBUG\ENTRYPOINT.OBJ
C:\USERS\MKXZIS\DOWNLOADS\CRUSH-CRUSH-CHEAT-MAIN\CRUSH CRUSH CHEAT\DEBUG\MAIN.OBJ
C:\USERS\MKXZIS\DOWNLOADS\CRUSH-CRUSH-CHEAT-MAIN\CRUSH CRUSH CHEAT\DEBUG\CONSOLE.OBJ
C:\WINDOWS\GLOBALIZATION\SORTING\SORTDEFAULT.NLS
E:\PROGRAM FILES\MICROSOFT VISUAL STUDIO\2022\PROFESSIONAL\VC\TOOLS\MSVC\14.37.32822\LIB\X86\MSVCPRTD.LIB
E:\PROGRAM FILES\MICROSOFT VISUAL STUDIO\2022\PROFESSIONAL\VC\TOOLS\MSVC\14.37.32822\LIB\X86\MSVCRTD.LIB
E:\PROGRAM FILES\MICROSOFT VISUAL STUDIO\2022\PROFESSIONAL\VC\TOOLS\MSVC\14.37.32822\LIB\X86\OLDNAMES.LIB
C:\PROGRAM FILES (X86)\WINDOWS KITS\10\LIB\10.0.22621.0\UM\X86\IMM32.LIB
C:\PROGRAM FILES (X86)\WINDOWS KITS\10\LIB\10.0.22621.0\UM\X86\D3DCOMPILER.LIB
C:\PROGRAM FILES (X86)\WINDOWS KITS\10\LIB\10.0.22621.0\UM\X86\XINPUT.LIB
E:\PROGRAM FILES\MICROSOFT VISUAL STUDIO\2022\PROFESSIONAL\VC\TOOLS\MSVC\14.37.32822\LIB\X86\VCRUNTIMED.LIB
C:\PROGRAM FILES (X86)\WINDOWS KITS\10\LIB\10.0.22621.0\UCRT\X86\UCRTD.LIB
E:\PROGRAM FILES\MICROSOFT VISUAL STUDIO\2022\PROFESSIONAL\VC\TOOLS\MSVC\14.37.32822\BIN\HOSTX86\X86\CVTRES.EXE
E:\PROGRAM FILES\MICROSOFT VISUAL STUDIO\2022\PROFESSIONAL\VC\TOOLS\MSVC\14.37.32822\BIN\HOSTX86\X86\MSPDBSRV.EXE
C:\WINDOWS\SYSTEM32\TZRES.DLL
